<?xml version="1.0" encoding="UTF-8"?>
<CustomTab xmlns="http://soap.sforce.com/2006/04/metadata">
    <label>My Training</label>
    <mobileReady>false</mobileReady>
    <motif>Custom65: Cup</motif>
    <page>almond__MyTraining</page>
</CustomTab>
