<?xml version="1.0" encoding="UTF-8"?>
<CustomTab xmlns="http://soap.sforce.com/2006/04/metadata">
    <customObject>true</customObject>
    <description>Create and manage deal guidance dimension sets</description>
    <mobileReady>false</mobileReady>
    <motif>Custom96: Street Sign</motif>
</CustomTab>
