<?xml version="1.0" encoding="UTF-8"?>
<CustomTab xmlns="http://soap.sforce.com/2006/04/metadata">
    <description>Maintain config custom settings</description>
    <label>Config Settings</label>
    <mobileReady>false</mobileReady>
    <motif>Custom92: Ship</motif>
    <page>Apttus_Config2__ConfigSettings</page>
</CustomTab>
