<?xml version="1.0" encoding="UTF-8"?>
<CustomTab xmlns="http://soap.sforce.com/2006/04/metadata">
    <customObject>true</customObject>
    <description>APAC Coaching Call Plan</description>
    <mobileReady>false</mobileReady>
    <motif>Custom27: Laptop</motif>
</CustomTab>
