<?xml version="1.0" encoding="UTF-8"?>
<CustomTab xmlns="http://soap.sforce.com/2006/04/metadata">
    <description>This page contains functions to aid administrators with the installation and configuration of the connector.</description>
    <label>Concur Connector Admin Tools</label>
    <mobileReady>false</mobileReady>
    <motif>Custom27: Laptop</motif>
    <page>ConcurConnect__AdminTools</page>
</CustomTab>
