<?xml version="1.0" encoding="UTF-8"?>
<CustomTab xmlns="http://soap.sforce.com/2006/04/metadata">
    <description>Configuration Page for Object Cost Tracking via Concur Connector.</description>
    <icon>ConcurConnect__Concur_Connect_Assets/ConcurConnect__TripIcon_TransparentBackground.png</icon>
    <label>Cost Tracking Configuration</label>
    <mobileReady>false</mobileReady>
    <motif>Custom299: TV Widescreen</motif>
    <page>ConcurConnect__CostTrackingConfiguration</page>
</CustomTab>
