<?xml version="1.0" encoding="UTF-8"?>
<CustomTab xmlns="http://soap.sforce.com/2006/04/metadata">
    <customObject>true</customObject>
    <description>This object stores various locations as it relates to different address types and departments</description>
    <mobileReady>false</mobileReady>
    <motif>Custom10: Moon</motif>
</CustomTab>
