<?xml version="1.0" encoding="UTF-8"?>
<CustomTab xmlns="http://soap.sforce.com/2006/04/metadata">
    <label>Distributor Document View</label>
    <mobileReady>false</mobileReady>
    <motif>Custom37: Bridge</motif>
    <page>zaapit_tb_Distributor_Document</page>
</CustomTab>
