<?xml version="1.0" encoding="UTF-8"?>
<CustomTab xmlns="http://soap.sforce.com/2006/04/metadata">
    <icon>primest__Hoopla_Logo_Mark/primest__Small_Hoopla_Logo.png</icon>
    <label>Countdown</label>
    <mobileReady>false</mobileReady>
    <motif>Custom315: TV Widescreen</motif>
    <page>primest__countdownHome</page>
</CustomTab>
