<?xml version="1.0" encoding="UTF-8"?>
<CustomTab xmlns="http://soap.sforce.com/2006/04/metadata">
    <label>Sales-In</label>
    <mobileReady>false</mobileReady>
    <motif>Custom20: Airplane</motif>
    <page>zaapit__zaapit_tb_GeneralWL8</page>
</CustomTab>
