<?xml version="1.0" encoding="UTF-8"?>
<CustomTab xmlns="http://soap.sforce.com/2006/04/metadata">
    <description>Leads - mass update</description>
    <label>Leads</label>
    <mobileReady>false</mobileReady>
    <motif>Custom39: Telescope</motif>
    <page>zaapit__zaapit_tb_LeadWL</page>
</CustomTab>
