<?xml version="1.0" encoding="UTF-8"?>
<CustomTab xmlns="http://soap.sforce.com/2006/04/metadata">
    <label>Upcoming Events</label>
    <mobileReady>false</mobileReady>
    <motif>Custom25: Alarm clock</motif>
    <page>zaapit__zaapit_tb_eventWL_filtered_SAM</page>
</CustomTab>
