<?xml version="1.0" encoding="UTF-8"?>
<CustomTab xmlns="http://soap.sforce.com/2006/04/metadata">
    <description>Accounts - mass update</description>
    <label>Accounts</label>
    <mobileReady>false</mobileReady>
    <motif>Custom84: Presenter</motif>
    <page>zaapit__zaapit_tb_AccountWL</page>
</CustomTab>
